…
``` r
lq <- lq %>%
  filter(country == "United States")
```

### Exercise 9

``` r
dn %>%
  count(state) %>%
  inner_join(states, by = c("state" = "abbreviation")) %>%
  arrange(desc(n))
```

    ## # A tibble: 51 × 4
    ##    state     n name            area
    ##    <chr> <int> <chr>          <dbl>
    ##  1 CA      403 California   163695.
    ##  2 TX      200 Texas        268596.
    ##  3 FL      140 Florida       65758.
    ##  4 AZ       83 Arizona      113990.
    ##  5 IL       56 Illinois      57914.
    ##  6 NY       56 New York      54555.
    ##  7 WA       49 Washington    71298.
    ##  8 OH       44 Ohio          44826.
    ##  9 MO       42 Missouri      69707.
    ## 10 PA       40 Pennsylvania  46054.
    ## # … with 41 more rows
### Exercise 10

DC has the most Denny’s per thousand square mile.

RI has the most la Quinta per thousand square mile.

``` r
dn %>%
  count(state) %>%
  inner_join(states, by = c("state" = "abbreviation")) %>%
  mutate(nmi2= area/n)%>%
  arrange(nmi2)
```

    ## # A tibble: 51 × 5
    ##    state     n name                     area   nmi2
    ##    <chr> <int> <chr>                   <dbl>  <dbl>
    ##  1 DC        2 District of Columbia     68.3   34.2
    ##  2 RI        5 Rhode Island           1545.   309. 
    ##  3 CA      403 California           163695.   406. 
    ##  4 CT       12 Connecticut            5543.   462. 
    ##  5 FL      140 Florida               65758.   470. 
    ##  6 MD       26 Maryland              12406.   477. 
    ##  7 NJ       10 New Jersey             8723.   872. 
    ##  8 NY       56 New York              54555.   974. 
    ##  9 IN       37 Indiana               36420.   984. 
    ## 10 OH       44 Ohio                  44826.  1019. 
    ## # … with 41 more rows

``` r
lq %>%
  count(state) %>%
  inner_join(states, by = c("state" = "abbreviation")) %>%
  mutate(nmi2= area/n)%>%
  arrange(nmi2)
```

    ## # A tibble: 48 × 5
    ##    state     n name             area  nmi2
    ##    <chr> <int> <chr>           <dbl> <dbl>
    ##  1 RI        2 Rhode Island    1545.  772.
    ##  2 FL       74 Florida        65758.  889.
    ##  3 CT        6 Connecticut     5543.  924.
    ##  4 MD       13 Maryland       12406.  954.
    ##  5 TX      237 Texas         268596. 1133.
    ##  6 TN       30 Tennessee      42144. 1405.
    ##  7 GA       41 Georgia        59425. 1449.
    ##  8 NJ        5 New Jersey      8723. 1745.
    ##  9 MA        6 Massachusetts  10554. 1759.
    ## 10 LA       28 Louisiana      52378. 1871.
    ## # … with 38 more rows
…
